{eventid={"S":"000012783031804"}, assetid={"N":"1668530"}, tagvalue={"S":"896393330"}, scantimestamp={"S":"2017\/01\/02 11:11:01.823"}, scantimestamp_epoch={"S":"1483355461.823"}, location={"S":"LINE16"}, eancode={"S":"5010055608200"}, tripserial={"S":"161005102294"}, batchcode={"S":""}}
{eventid={"S":"000012783031758"}, assetid={"N":"2606666"}, tagvalue={"S":"2437778437"}, scantimestamp={"S":"2017\/01\/02 11:11:05.880"}, scantimestamp_epoch={"S":"1483355465.88"}, location={"S":"LINE16"}, eancode={"S":"5010055608200"}, tripserial={"S":"161005102295"}, batchcode={"S":""}}
{eventid={"S":"000012783031806"}, assetid={"N":"81987"}, tagvalue={"S":"2294078576"}, scantimestamp={"S":"2017\/01\/02 11:11:09.687"}, scantimestamp_epoch={"S":"1483355469.687"}, location={"S":"LINE16"}, eancode={"S":"5010055608200"}, tripserial={"S":"161005102296"}, batchcode={"S":""}}
{eventid={"S":"000012783031760"}, assetid={"N":"1570205"}, tagvalue={"S":"2348664177"}, scantimestamp={"S":"2017\/01\/02 11:11:13.867"}, scantimestamp_epoch={"S":"1483355473.867"}, location={"S":"LINE16"}, eancode={"S":"5010055608200"}, tripserial={"S":"161005102297"}, batchcode={"S":""}}
{eventid={"S":"000012783031808"}, assetid={"N":"2555505"}, tagvalue={"S":"60930680"}, scantimestamp={"S":"2017\/01\/02 11:11:17.737"}, scantimestamp_epoch={"S":"1483355477.737"}, location={"S":"LINE16"}, eancode={"S":"5010055608200"}, tripserial={"S":"161005102298"}, batchcode={"S":""}}
{eventid={"S":"000012783031762"}, assetid={"N":"2304920"}, tagvalue={"S":"498808"}, scantimestamp={"S":"2017\/01\/02 11:11:21.560"}, scantimestamp_epoch={"S":"1483355481.56"}, location={"S":"LINE16"}, eancode={"S":"5010055608200"}, tripserial={"S":"161005102299"}, batchcode={"S":""}}
{eventid={"S":"000012783031810"}, assetid={"N":"1532724"}, tagvalue={"S":"3175205490"}, scantimestamp={"S":"2017\/01\/02 11:11:25.473"}, scantimestamp_epoch={"S":"1483355485.473"}, location={"S":"LINE16"}, eancode={"S":"5010055608200"}, tripserial={"S":"161005102300"}, batchcode={"S":""}}
{eventid={"S":"000012783031764"}, assetid={"N":"1281559"}, tagvalue={"S":"3310520581"}, scantimestamp={"S":"2017\/01\/02 11:11:29.250"}, scantimestamp_epoch={"S":"1483355489.25"}, location={"S":"LINE16"}, eancode={"S":"5010055608200"}, tripserial={"S":"161005102301"}, batchcode={"S":""}}
{eventid={"S":"000012783031812"}, assetid={"N":"2615368"}, tagvalue={"S":"3190573317"}, scantimestamp={"S":"2017\/01\/02 11:11:33.117"}, scantimestamp_epoch={"S":"1483355493.117"}, location={"S":"LINE16"}, eancode={"S":"5010055608200"}, tripserial={"S":"161005102302"}, batchcode={"S":""}}
{eventid={"S":"000012783031766"}, assetid={"N":"1942436"}, tagvalue={"S":"2816001906"}, scantimestamp={"S":"2017\/01\/02 11:11:37.050"}, scantimestamp_epoch={"S":"1483355497.05"}, location={"S":"LINE16"}, eancode={"S":"5010055608200"}, tripserial={"S":"161005102303"}, batchcode={"S":""}}
{eventid={"S":"000012783031814"}, assetid={"N":"1600538"}, tagvalue={"S":"459130481"}, scantimestamp={"S":"2017\/01\/02 11:11:40.980"}, scantimestamp_epoch={"S":"1483355500.98"}, location={"S":"LINE16"}, eancode={"S":"5010055608200"}, tripserial={"S":"161005102304"}, batchcode={"S":""}}
{eventid={"S":"000012783031768"}, assetid={"N":"42412"}, tagvalue={"S":"1564482161"}, scantimestamp={"S":"2017\/01\/02 11:11:44.943"}, scantimestamp_epoch={"S":"1483355504.943"}, location={"S":"LINE16"}, eancode={"S":"5010055608200"}, tripserial={"S":"161005102305"}, batchcode={"S":""}}
{eventid={"S":"000012783031816"}, assetid={"N":"940274"}, tagvalue={"S":"1814108785"}, scantimestamp={"S":"2017\/01\/02 11:11:49.000"}, scantimestamp_epoch={"S":"1483355509.0"}, location={"S":"LINE16"}, eancode={"S":"5010055608200"}, tripserial={"S":"161005102306"}, batchcode={"S":""}}
{eventid={"S":"000012783031770"}, assetid={"N":"2403230"}, tagvalue={"S":"757956645"}, scantimestamp={"S":"2017\/01\/02 11:11:52.820"}, scantimestamp_epoch={"S":"1483355512.82"}, location={"S":"LINE16"}, eancode={"S":"5010055608200"}, tripserial={"S":"161005102307"}, batchcode={"S":""}}
{eventid={"S":"000012783031818"}, assetid={"N":"239783"}, tagvalue={"S":"3060930673"}, scantimestamp={"S":"2017\/01\/02 11:11:56.753"}, scantimestamp_epoch={"S":"1483355516.753"}, location={"S":"LINE16"}, eancode={"S":"5010055608200"}, tripserial={"S":"161005102308"}, batchcode={"S":""}}
{eventid={"S":"000012783031772"}, assetid={"N":"1625666"}, tagvalue={"S":"137348978"}, scantimestamp={"S":"2017\/01\/02 11:12:00.713"}, scantimestamp_epoch={"S":"1483355520.713"}, location={"S":"LINE16"}, eancode={"S":"5010055608200"}, tripserial={"S":"161005102309"}, batchcode={"S":""}}
{eventid={"S":"000012783031820"}, assetid={"N":"675086"}, tagvalue={"S":"1119512178"}, scantimestamp={"S":"2017\/01\/02 11:12:04.693"}, scantimestamp_epoch={"S":"1483355524.693"}, location={"S":"LINE16"}, eancode={"S":"5010055608200"}, tripserial={"S":"161005102310"}, batchcode={"S":""}}
{eventid={"S":"000012783031822"}, assetid={"N":"1490787"}, tagvalue={"S":"1388726277"}, scantimestamp={"S":"2017\/01\/02 11:12:13.007"}, scantimestamp_epoch={"S":"1483355533.007"}, location={"S":"LINE16"}, eancode={"S":"5010055608200"}, tripserial={"S":"161005102312"}, batchcode={"S":""}}
{eventid={"S":"000012783031776"}, assetid={"N":"1916712"}, tagvalue={"S":"2361770865"}, scantimestamp={"S":"2017\/01\/02 11:12:29.620"}, scantimestamp_epoch={"S":"1483355549.62"}, location={"S":"LINE16"}, eancode={"S":"5010055608200"}, tripserial={"S":"161005102315"}, batchcode={"S":""}}
{eventid={"S":"000012783031825"}, assetid={"N":"338688"}, tagvalue={"S":"757337093"}, scantimestamp={"S":"2017\/01\/02 11:12:36.407"}, scantimestamp_epoch={"S":"1483355556.407"}, location={"S":"LINE16"}, eancode={"S":"5010055608200"}, tripserial={"S":"161005102316"}, batchcode={"S":""}}
{eventid={"S":"000012783031778"}, assetid={"N":"453784"}, tagvalue={"S":"1752701445"}, scantimestamp={"S":"2017\/01\/02 11:12:40.340"}, scantimestamp_epoch={"S":"1483355560.34"}, location={"S":"LINE16"}, eancode={"S":"5010055608200"}, tripserial={"S":"161005102317"}, batchcode={"S":""}}
{eventid={"S":"000012783031827"}, assetid={"N":"2045178"}, tagvalue={"S":"574932081"}, scantimestamp={"S":"2017\/01\/02 11:12:44.333"}, scantimestamp_epoch={"S":"1483355564.333"}, location={"S":"LINE16"}, eancode={"S":"5010055608200"}, tripserial={"S":"161005102318"}, batchcode={"S":""}}
{eventid={"S":"000012783031780"}, assetid={"N":"2309564"}, tagvalue={"S":"1573649783"}, scantimestamp={"S":"2017\/01\/02 11:12:48.247"}, scantimestamp_epoch={"S":"1483355568.247"}, location={"S":"LINE16"}, eancode={"S":"5010055608200"}, tripserial={"S":"161005102319"}, batchcode={"S":""}}
{eventid={"S":"000012783031829"}, assetid={"N":"262256797"}, tagvalue={"S":"1515404671"}, scantimestamp={"S":"2017\/01\/02 11:12:52.180"}, scantimestamp_epoch={"S":"1483355572.18"}, location={"S":"LINE16"}, eancode={"S":"5010055608200"}, tripserial={"S":"161005102320"}, batchcode={"S":""}}
{eventid={"S":"000012783031832"}, assetid={"N":"2267080"}, tagvalue={"S":"3137553523"}, scantimestamp={"S":"2017\/01\/02 11:13:19.027"}, scantimestamp_epoch={"S":"1483355599.027"}, location={"S":"LINE16"}, eancode={"S":"5010055608200"}, tripserial={"S":"161005102323"}, batchcode={"S":""}}
{eventid={"S":"000012783031783"}, assetid={"N":"2264807"}, tagvalue={"S":"2792653176"}, scantimestamp={"S":"2017\/01\/02 11:13:23.240"}, scantimestamp_epoch={"S":"1483355603.24"}, location={"S":"LINE16"}, eancode={"S":"5010055608200"}, tripserial={"S":"161005102324"}, batchcode={"S":""}}
{eventid={"S":"000012783031785"}, assetid={"N":"5236952"}, tagvalue={"S":"401792120"}, scantimestamp={"S":"2017\/01\/02 11:13:32.490"}, scantimestamp_epoch={"S":"1483355612.49"}, location={"S":"LINE16"}, eancode={"S":"5010055608200"}, tripserial={"S":"161005102325"}, batchcode={"S":""}}
{eventid={"S":"000012783031834"}, assetid={"N":"304788"}, tagvalue={"S":"1691365489"}, scantimestamp={"S":"2017\/01\/02 11:13:38.730"}, scantimestamp_epoch={"S":"1483355618.73"}, location={"S":"LINE16"}, eancode={"S":"5010055608200"}, tripserial={"S":"161005102326"}, batchcode={"S":""}}
{eventid={"S":"000012783031786"}, assetid={"N":"1183131"}, tagvalue={"S":"53466993"}, scantimestamp={"S":"2017\/01\/02 11:13:46.140"}, scantimestamp_epoch={"S":"1483355626.14"}, location={"S":"LINE16"}, eancode={"S":"5010055608200"}, tripserial={"S":"161005102327"}, batchcode={"S":""}}
{eventid={"S":"000012783031836"}, assetid={"N":"1516914"}, tagvalue={"S":"1557317233"}, scantimestamp={"S":"2017\/01\/02 11:13:52.240"}, scantimestamp_epoch={"S":"1483355632.24"}, location={"S":"LINE16"}, eancode={"S":"5010055608200"}, tripserial={"S":"161005102328"}, batchcode={"S":""}}
{eventid={"S":"000012783031788"}, assetid={"N":"1091871"}, tagvalue={"S":"685401970"}, scantimestamp={"S":"2017\/01\/02 11:13:56.840"}, scantimestamp_epoch={"S":"1483355636.84"}, location={"S":"LINE16"}, eancode={"S":"5010055608200"}, tripserial={"S":"161005102329"}, batchcode={"S":""}}
{eventid={"S":"000012783031838"}, assetid={"N":"262715100"}, tagvalue={"S":"4081903488"}, scantimestamp={"S":"2017\/01\/02 11:14:08.977"}, scantimestamp_epoch={"S":"1483355648.977"}, location={"S":"LINE16"}, eancode={"S":"5010055608200"}, tripserial={"S":"161005102330"}, batchcode={"S":""}}
{eventid={"S":"000012783031789"}, assetid={"N":"1632869"}, tagvalue={"S":"4087268721"}, scantimestamp={"S":"2017\/01\/02 11:14:19.697"}, scantimestamp_epoch={"S":"1483355659.697"}, location={"S":"LINE16"}, eancode={"S":"5010055608200"}, tripserial={"S":"161005102331"}, batchcode={"S":""}}
{eventid={"S":"000012783031840"}, assetid={"N":"652309"}, tagvalue={"S":"2743242501"}, scantimestamp={"S":"2017\/01\/02 11:14:23.737"}, scantimestamp_epoch={"S":"1483355663.737"}, location={"S":"LINE16"}, eancode={"S":"5010055608200"}, tripserial={"S":"161005102332"}, batchcode={"S":""}}
{eventid={"S":"000012783031791"}, assetid={"N":"2347140"}, tagvalue={"S":"2614353272"}, scantimestamp={"S":"2017\/01\/02 11:14:29.493"}, scantimestamp_epoch={"S":"1483355669.493"}, location={"S":"LINE16"}, eancode={"S":"5010055608200"}, tripserial={"S":"161005102333"}, batchcode={"S":""}}
{eventid={"S":"000012783031794"}, assetid={"N":"722343"}, tagvalue={"S":"1688954738"}, scantimestamp={"S":"2017\/01\/02 11:15:32.423"}, scantimestamp_epoch={"S":"1483355732.423"}, location={"S":"LINE16"}, eancode={"S":"5010055608200"}, tripserial={"S":"161005102336"}, batchcode={"S":""}}
{eventid={"S":"000012783031843"}, assetid={"N":"1895672"}, tagvalue={"S":"970049138"}, scantimestamp={"S":"2017\/01\/02 11:15:36.417"}, scantimestamp_epoch={"S":"1483355736.417"}, location={"S":"LINE16"}, eancode={"S":"5010055608200"}, tripserial={"S":"161005102337"}, batchcode={"S":""}}
{eventid={"S":"000012783031796"}, assetid={"N":"258547"}, tagvalue={"S":"894726769"}, scantimestamp={"S":"2017\/01\/02 11:15:40.160"}, scantimestamp_epoch={"S":"1483355740.16"}, location={"S":"LINE16"}, eancode={"S":"5010055608200"}, tripserial={"S":"161005102338"}, batchcode={"S":""}}
{eventid={"S":"000012783031845"}, assetid={"N":"447447"}, tagvalue={"S":"544938501"}, scantimestamp={"S":"2017\/01\/02 11:15:43.890"}, scantimestamp_epoch={"S":"1483355743.89"}, location={"S":"LINE16"}, eancode={"S":"5010055608200"}, tripserial={"S":"161005102339"}, batchcode={"S":""}}
{eventid={"S":"000012783031798"}, assetid={"N":"1760207"}, tagvalue={"S":"3229206642"}, scantimestamp={"S":"2017\/01\/02 11:15:47.650"}, scantimestamp_epoch={"S":"1483355747.65"}, location={"S":"LINE16"}, eancode={"S":"5010055608200"}, tripserial={"S":"161005102340"}, batchcode={"S":""}}
{eventid={"S":"000012783031847"}, assetid={"N":"786450"}, tagvalue={"S":"240356101"}, scantimestamp={"S":"2017\/01\/02 11:15:51.440"}, scantimestamp_epoch={"S":"1483355751.44"}, location={"S":"LINE16"}, eancode={"S":"5010055608200"}, tripserial={"S":"161005102341"}, batchcode={"S":""}}
{eventid={"S":"000012783031850"}, assetid={"N":"2607716"}, tagvalue={"S":"1408631160"}, scantimestamp={"S":"2017\/01\/02 11:15:55.213"}, scantimestamp_epoch={"S":"1483355755.213"}, location={"S":"LINE16"}, eancode={"S":"5010055608200"}, tripserial={"S":"161005102342"}, batchcode={"S":""}}
{eventid={"S":"000012783031849"}, assetid={"N":"1539706"}, tagvalue={"S":"3895837553"}, scantimestamp={"S":"2017\/01\/02 11:15:58.973"}, scantimestamp_epoch={"S":"1483355758.973"}, location={"S":"LINE16"}, eancode={"S":"5010055608200"}, tripserial={"S":"161005102343"}, batchcode={"S":""}}
{eventid={"S":"000012783031852"}, assetid={"N":"1833990"}, tagvalue={"S":"2091567730"}, scantimestamp={"S":"2017\/01\/02 11:16:08.070"}, scantimestamp_epoch={"S":"1483355768.07"}, location={"S":"LINE16"}, eancode={"S":"5010055608200"}, tripserial={"S":"161005102344"}, batchcode={"S":""}}
{eventid={"S":"000012783031901"}, assetid={"N":"875859"}, tagvalue={"S":"4257957397"}, scantimestamp={"S":"2017\/01\/02 11:16:11.923"}, scantimestamp_epoch={"S":"1483355771.923"}, location={"S":"LINE16"}, eancode={"S":"5010055608200"}, tripserial={"S":"161005102345"}, batchcode={"S":""}}
{eventid={"S":"000012783031903"}, assetid={"N":"1887472"}, tagvalue={"S":"3598967154"}, scantimestamp={"S":"2017\/01\/02 11:16:15.883"}, scantimestamp_epoch={"S":"1483355775.883"}, location={"S":"LINE16"}, eancode={"S":"5010055608200"}, tripserial={"S":"161005102346"}, batchcode={"S":""}}
{eventid={"S":"000012783031854"}, assetid={"N":"1073357"}, tagvalue={"S":"613626481"}, scantimestamp={"S":"2017\/01\/02 11:16:19.783"}, scantimestamp_epoch={"S":"1483355779.783"}, location={"S":"LINE16"}, eancode={"S":"5010055608200"}, tripserial={"S":"161005102347"}, batchcode={"S":""}}
{eventid={"S":"000012783031856"}, assetid={"N":"844872"}, tagvalue={"S":"2876015125"}, scantimestamp={"S":"2017\/01\/02 11:16:23.577"}, scantimestamp_epoch={"S":"1483355783.577"}, location={"S":"LINE16"}, eancode={"S":"5010055608200"}, tripserial={"S":"161005102348"}, batchcode={"S":""}}
{eventid={"S":"000012783031905"}, assetid={"N":"837659"}, tagvalue={"S":"2552568177"}, scantimestamp={"S":"2017\/01\/02 11:16:27.383"}, scantimestamp_epoch={"S":"1483355787.383"}, location={"S":"LINE16"}, eancode={"S":"5010055608200"}, tripserial={"S":"161005102349"}, batchcode={"S":""}}
{eventid={"S":"000012783031858"}, assetid={"N":"1060002"}, tagvalue={"S":"2787820145"}, scantimestamp={"S":"2017\/01\/02 11:16:31.140"}, scantimestamp_epoch={"S":"1483355791.14"}, location={"S":"LINE16"}, eancode={"S":"5010055608200"}, tripserial={"S":"161005102350"}, batchcode={"S":""}}
{eventid={"S":"000012783031907"}, assetid={"N":"1699695"}, tagvalue={"S":"2870658673"}, scantimestamp={"S":"2017\/01\/02 11:16:34.917"}, scantimestamp_epoch={"S":"1483355794.917"}, location={"S":"LINE16"}, eancode={"S":"5010055608200"}, tripserial={"S":"161005102351"}, batchcode={"S":""}}
{eventid={"S":"000012783031860"}, assetid={"N":"273776"}, tagvalue={"S":"1565994864"}, scantimestamp={"S":"2017\/01\/02 11:16:38.707"}, scantimestamp_epoch={"S":"1483355798.707"}, location={"S":"LINE16"}, eancode={"S":"5010055608200"}, tripserial={"S":"161005102352"}, batchcode={"S":""}}
{eventid={"S":"000012783031909"}, assetid={"N":"248077"}, tagvalue={"S":"1259197297"}, scantimestamp={"S":"2017\/01\/02 11:16:43.480"}, scantimestamp_epoch={"S":"1483355803.48"}, location={"S":"LINE16"}, eancode={"S":"5010055608200"}, tripserial={"S":"161005102353"}, batchcode={"S":""}}
{eventid={"S":"000012783031862"}, assetid={"N":"2375046"}, tagvalue={"S":"2362237810"}, scantimestamp={"S":"2017\/01\/02 11:16:47.617"}, scantimestamp_epoch={"S":"1483355807.617"}, location={"S":"LINE16"}, eancode={"S":"5010055608200"}, tripserial={"S":"161005102354"}, batchcode={"S":""}}
{eventid={"S":"000012783031911"}, assetid={"N":"1947079"}, tagvalue={"S":"2777139057"}, scantimestamp={"S":"2017\/01\/02 11:16:51.610"}, scantimestamp_epoch={"S":"1483355811.61"}, location={"S":"LINE16"}, eancode={"S":"5010055608200"}, tripserial={"S":"161005102355"}, batchcode={"S":""}}
{eventid={"S":"000012783031864"}, assetid={"N":"1540157"}, tagvalue={"S":"3939682674"}, scantimestamp={"S":"2017\/01\/02 11:16:55.773"}, scantimestamp_epoch={"S":"1483355815.773"}, location={"S":"LINE16"}, eancode={"S":"5010055608200"}, tripserial={"S":"161005102356"}, batchcode={"S":""}}
{eventid={"S":"000012783031913"}, assetid={"N":"83274"}, tagvalue={"S":"2888573041"}, scantimestamp={"S":"2017\/01\/02 11:16:59.830"}, scantimestamp_epoch={"S":"1483355819.83"}, location={"S":"LINE16"}, ean